<svg xmlns:dc="http://purl.org/dc/elements/1.1/" xmlns:cc="http://creativecommons.org/ns#" xmlns:rdf="http://www.w3.org/1999/02/22-rdf-syntax-ns#" xmlns:svg="http://www.w3.org/2000/svg" xmlns="http://www.w3.org/2000/svg" viewBox="0" width="440.67" height="402.18">
  <metadata id="metadata">
    <rdf:RDF>
      <cc:Work>
        <dc:format>image/svg+xml</dc:format>
        <dc:type rdf:resource="http://purl.org/dc/dcmitype/StillImage" />
        <dc:title>innercircles - building life together™</dc:title>
        <cc:license rdf:resource="http://creativecommons.org/licenses/by-nc-nd/4.0/" />
        <dc:subject>innercircles™ company logo</dc:subject>
        <dc:description>Depiction of innercircles™ company logo with tagline in square layout</dc:description>
        <dc:creator rdf:href="https://www.linkedin.com/in/arnoldschrijver/" />
      </cc:Work>
      <cc:License rdf:about="http://creativecommons.org/licenses/by-nc-nd/4.0/">
        <cc:permits rdf:resource="http://creativecommons.org/ns#Reproduction" />
        <cc:permits rdf:resource="http://creativecommons.org/ns#Distribution" />
        <cc:requires rdf:resource="http://creativecommons.org/ns#Notice" />
        <cc:requires rdf:resource="http://creativecommons.org/ns#Attribution" />
        <cc:prohibits rdf:resource="http://creativecommons.org/ns#DerivativeWorks" />
        <cc:prohibits rdf:resource="http://creativecommons.org/ns#CommercialUse" />
      </cc:License>
    </rdf:RDF>
  </metadata>
  <g aria-label="innercircles" style="line-height:0%" font-weight="500" font-size="80" font-family="'Prompt Medium',Prompt" fill="#069">
    <path d="M5.68 300.77q-2.4 0-4.08-1.6-1.6-1.6-1.6-4t1.6-4q1.68-1.68 4.08-1.68 2.4 0 4.08 1.68 1.68 1.6 1.68 4t-1.68 4q-1.68 1.6-4.08 1.6zm-5.12 6.72H10.8v38.4H.56zM21.1 307.49h9.75v5.2q2.72-3.28 6.48-4.8 3.76-1.6 7.92-1.6 7.76 0 11.6 4.24 3.84 4.16 3.84 11.12v24.24H50.61V322.6q0-8.4-7.84-8.4-3.44 0-6.48 1.68-3.04 1.6-5.12 4.88v25.12H21.1zM69.84 307.49h9.76v5.2q2.72-3.28 6.48-4.8 3.76-1.6 7.92-1.6 7.76 0 11.6 4.24 3.84 4.16 3.84 11.12v24.24H99.36V322.6q0-8.4-7.84-8.4-3.44 0-6.48 1.68-3.04 1.6-5.12 4.88v25.12H69.84zM140.2 347.09q-10.73 0-16.97-5.36-6.24-5.36-6.24-14.96 0-9.44 5.52-14.96 5.52-5.52 15.76-5.52 6.72 0 11.44 2.56 4.8 2.56 7.2 7.04 2.4 4.4 2.4 10.08v4.64H126.6q1.04 8.56 14.88 8.56 3.68 0 7.52-.64 3.84-.64 6.72-1.76v7.76q-2.72 1.12-7.04 1.84-4.24.72-8.48.72zm9.6-23.36q-.17-4.56-3.29-7.04-3.04-2.48-8.4-2.48-5.28 0-8.32 2.56t-3.2 6.96zM167.34 307.49h9.76v6.16q2.32-3.12 6.56-4.64 4.32-1.52 9.84-1.52v7.68q-5.84 0-10.16 1.84-4.24 1.76-5.92 5.6v23.28h-10.08zM220.25 347.09q-6.72 0-11.84-2.4-5.04-2.4-7.83-6.96-2.8-4.56-2.8-10.96 0-6.4 2.8-10.96 2.88-4.64 7.91-7.04 5.12-2.48 11.92-2.48 8.96 0 14.32 3.52v8.08q-5.2-3.68-13.27-3.68-6.17 0-9.85 3.12-3.6 3.04-3.6 9.44 0 6.32 3.6 9.36 3.68 3.04 9.68 3.04 8.08 0 13.93-3.84v8q-2.88 1.92-6.56 2.8-3.6.96-8.4.96zM248.96 300.77q-2.4 0-4.08-1.6-1.6-1.6-1.6-4t1.6-4q1.68-1.68 4.08-1.68 2.4 0 4.08 1.68 1.68 1.6 1.68 4t-1.68 4q-1.68 1.6-4.08 1.6zm-5.12 6.72h10.24v38.4h-10.24zM264.38 307.49h9.75v6.16q2.33-3.12 6.56-4.64 4.33-1.52 9.85-1.52v7.68q-5.85 0-10.17 1.84-4.24 1.76-5.91 5.6v23.28h-10.08zM317.29 347.09q-6.72 0-11.84-2.4-5.04-2.4-7.84-6.96-2.8-4.56-2.8-10.96 0-6.4 2.8-10.96 2.88-4.64 7.92-7.04 5.12-2.48 11.92-2.48 8.96 0 14.32 3.52v8.08q-5.2-3.68-13.28-3.68-6.16 0-9.84 3.12-3.6 3.04-3.6 9.44 0 6.32 3.6 9.36 3.68 3.04 9.68 3.04 8.08 0 13.92-3.84v8q-2.88 1.92-6.56 2.8-3.6.96-8.4.96zM340.31 286.77h10.08v59.12h-10.08zM381.6 347.09q-10.72 0-16.96-5.36t-6.24-14.96q0-9.44 5.52-14.96 5.52-5.52 15.76-5.52 6.72 0 11.44 2.56 4.8 2.56 7.2 7.04 2.4 4.4 2.4 10.08v4.64H368q1.04 8.56 14.88 8.56 3.68 0 7.52-.64 3.84-.64 6.72-1.76v7.76q-2.72 1.12-7.04 1.84-4.24.72-8.48.72zm9.6-23.36q-.16-4.56-3.28-7.04-3.04-2.48-8.4-2.48-5.28 0-8.32 2.56t-3.2 6.96zM423.71 347.09q-4.16 0-8.88-.96-4.72-.96-7.36-2.64v-8.56q3.12 1.92 7.44 3.12 4.32 1.12 8.16 1.12t5.6-.64q1.76-.72 1.76-2.56 0-1.44-.96-2.32-.88-.96-2.96-1.68-2-.8-6.24-1.92-4.8-1.36-7.6-2.8-2.72-1.44-4.16-3.6-1.36-2.24-1.36-5.76 0-5.76 4.56-8.64 4.56-2.96 12.32-2.96 4 0 7.92.8 4 .72 6.24 2.08v8.24q-2.4-1.44-5.84-2.32-3.44-.88-7.04-.88-3.92 0-5.92.8-2 .72-2 2.88 0 1.44 1.04 2.32 1.12.8 2.88 1.44 1.76.56 6.4 1.76 4.96 1.36 7.76 2.96 2.8 1.6 4 3.84 1.2 2.24 1.2 5.6 0 5.12-4.4 8.24-4.32 3.04-12.56 3.04z"/>
  </g>
  <g aria-label="building life together™" style="line-height:0%" font-weight="200" font-size="41" font-family="'Prompt ExtraLight',Prompt" fill="#060">
    <path d="M11.49 393.37q-6.07 0-9.02-4.55v3.93H.37v-30.3h2.14v14.56q1.23-2.21 3.69-3.36 2.46-1.19 5.29-1.19 2.87 0 5.2 1.31 2.38 1.31 3.73 3.73 1.36 2.38 1.36 5.46 0 3.15-1.36 5.53-1.35 2.34-3.73 3.6-2.33 1.28-5.2 1.28zm-.33-1.72q2.34 0 4.26-1.07 1.97-1.1 3.08-3.07 1.15-1.97 1.15-4.55 0-2.59-1.15-4.56-1.11-2-3.08-3.07-1.92-1.1-4.26-1.1-3.08 0-5.45 1.63-2.38 1.6-3.2 4.43v5.37q.9 2.79 3.2 4.39 2.33 1.6 5.45 1.6zM33.91 393.37q-3.93 0-5.98-2.1-2.05-2.08-2.05-5.53v-12.67H28v12.71q0 2.8 1.47 4.35 1.52 1.52 4.6 1.52 2.41 0 4.22-1.07 1.84-1.06 3.32-3.4v-14.1h2.17v19.67h-2.13v-3.28q-2.75 3.9-7.75 3.9zM51.46 368.4q-.66 0-1.1-.4-.42-.46-.42-1.12 0-.61.41-1.06.45-.45 1.11-.45.62 0 1.07.45.45.45.45 1.06 0 .66-.45 1.11-.45.41-1.07.41zm-1.07 4.67h2.14v19.68h-2.14zM59.15 362.46h2.13v30.3h-2.13zM76.83 393.37q-2.87 0-5.2-1.27-2.34-1.27-3.7-3.6-1.35-2.39-1.35-5.54 0-3.08 1.35-5.46 1.36-2.42 3.7-3.73 2.33-1.31 5.2-1.31 2.95 0 5.33 1.15 2.42 1.15 3.65 3.4v-14.55h2.17v30.3h-2.13v-3.94q-2.87 4.55-9.02 4.55zm.33-1.72q3.11 0 5.41-1.56 2.34-1.6 3.24-4.43v-5.37q-.78-2.83-3.16-4.43-2.33-1.64-5.5-1.64-2.33 0-4.3 1.11-1.92 1.07-3.07 3.07-1.1 1.97-1.1 4.56 0 2.58 1.1 4.55 1.15 1.96 3.07 3.07 1.97 1.07 4.3 1.07zM95.66 368.4q-.65 0-1.1-.4-.41-.46-.41-1.12 0-.61.4-1.06.46-.45 1.11-.45.62 0 1.07.45.45.45.45 1.06 0 .66-.45 1.11-.45.41-1.07.41zm-1.06 4.67h2.13v19.68H94.6zM103.36 373.07h2.09v3.33q1.51-2.05 3.65-3 2.17-.94 4.55-.94 3.85 0 5.74 2 1.88 2.02 1.88 5.38v12.91h-2.17V380q0-2.78-1.35-4.26-1.36-1.52-4.39-1.52-4.92 0-7.87 4.47v14.06h-2.13zM137.26 402.18q-2 0-3.9-.36-1.84-.33-3.07-.9v-1.85q3 1.4 6.97 1.4 4.23 0 6.28-2.02 2.09-1.96 2.09-5.98v-3.65q-1.27 2.25-3.61 3.4t-5.33 1.15q-2.87 0-5.25-1.27-2.33-1.31-3.69-3.7-1.35-2.37-1.35-5.49 0-3.11 1.35-5.49 1.36-2.38 3.7-3.65 2.33-1.31 5.2-1.31 3.12 0 5.33 1.1 2.25 1.11 3.69 3.41v-3.9h2.13v19.07q0 10.04-10.54 10.04zm-.28-10.53q3.11 0 5.5-1.6 2.37-1.64 3.15-4.47v-5.37q-.86-2.83-3.24-4.39-2.34-1.6-5.41-1.6-2.34 0-4.27 1.11-1.92 1.07-3.07 3.03-1.15 1.97-1.15 4.55 0 2.59 1.15 4.6 1.15 1.96 3.07 3.07 1.93 1.07 4.27 1.07zM169.98 362.46h2.13v30.3h-2.13zM179.75 368.4q-.66 0-1.11-.4-.41-.46-.41-1.12 0-.61.4-1.06.46-.45 1.12-.45.61 0 1.06.45.45.45.45 1.06 0 .66-.45 1.11-.45.41-1.06.41zm-1.07 4.67h2.13v19.68h-2.13zM188.95 374.8h-3.15v-1.73h3.15v-4.8q0-3.03 1.52-4.5 1.56-1.52 4.27-1.52 1.43 0 2.66.33v1.84q-1.15-.4-2.21-.4-2.1 0-3.12 1.06-.98 1.02-.98 3.24v4.75h5.12v1.73h-5.12v17.95h-2.14zM211.46 393.37q-5.29 0-8.24-2.7-2.9-2.75-2.9-7.71 0-4.84 2.62-7.67 2.66-2.83 7.54-2.83 3.28 0 5.58 1.27 2.3 1.27 3.44 3.53 1.19 2.25 1.19 5.12v1.35h-18.41q.08 3.9 2.58 5.9 2.5 2.02 6.77 2.02 1.92 0 3.77-.33 1.84-.33 3.28-.94v1.84q-1.19.5-3.28.82-2.05.33-3.94.33zm7.26-11.23q-.04-3.65-2.1-5.79-2.04-2.13-6.14-2.13-4.02 0-6.11 2.22-2.05 2.21-2.1 5.7zM249.06 393.37q-2.62 0-4.06-1.48-1.43-1.51-1.43-4.42V374.8h-3.16v-1.73h3.16v-5.9h2.13v5.9h5.08v1.73h-5.08v12.75q0 2.17.94 3.15.95.95 3.16.95 1.03 0 2.13-.41v1.8q-1.1.33-2.87.33zM264.86 393.37q-3.07 0-5.5-1.27-2.37-1.31-3.72-3.65-1.36-2.38-1.36-5.5 0-3.11 1.36-5.49 1.35-2.38 3.73-3.69 2.42-1.31 5.5-1.31 3.07 0 5.44 1.31 2.42 1.31 3.78 3.7 1.4 2.37 1.4 5.49 0 3.11-1.36 5.49-1.36 2.34-3.77 3.65-2.42 1.27-5.5 1.27zm0-1.72q2.5 0 4.43-1.07 1.93-1.06 3-3.03 1.06-1.97 1.06-4.6 0-2.62-1.07-4.59-1.06-2-2.99-3.07-1.93-1.07-4.43-1.07t-4.43 1.07q-1.92 1.06-2.99 3.07-1.07 1.97-1.07 4.6 0 2.62 1.07 4.59 1.07 1.97 3 3.03 1.92 1.07 4.42 1.07zM290.85 402.18q-2 0-3.9-.36-1.84-.33-3.07-.9v-1.85q3 1.4 6.97 1.4 4.23 0 6.28-2.02 2.09-1.96 2.09-5.98v-3.65q-1.27 2.25-3.61 3.4t-5.33 1.15q-2.87 0-5.25-1.27-2.33-1.31-3.69-3.7-1.35-2.37-1.35-5.49 0-3.11 1.35-5.49 1.36-2.38 3.7-3.65 2.33-1.31 5.2-1.31 3.12 0 5.33 1.1 2.25 1.11 3.69 3.41v-3.9h2.13v19.07q0 10.04-10.54 10.04zm-.28-10.53q3.11 0 5.5-1.6 2.37-1.64 3.15-4.47v-5.37q-.86-2.83-3.24-4.39-2.34-1.6-5.41-1.6-2.34 0-4.27 1.11-1.92 1.07-3.07 3.03-1.15 1.97-1.15 4.55 0 2.59 1.15 4.6 1.15 1.96 3.07 3.07 1.93 1.07 4.27 1.07zM317.89 393.37q-5.3 0-8.24-2.7-2.91-2.75-2.91-7.71 0-4.84 2.62-7.67 2.66-2.83 7.54-2.83 3.28 0 5.58 1.27 2.3 1.27 3.44 3.53 1.2 2.25 1.2 5.12v1.35H308.7q.09 3.9 2.59 5.9 2.5 2.02 6.76 2.02 1.93 0 3.77-.33 1.85-.33 3.28-.94v1.84q-1.19.5-3.28.82-2.05.33-3.93.33zm7.25-11.23q-.04-3.65-2.09-5.79-2.05-2.13-6.15-2.13-4.01 0-6.1 2.22-2.06 2.21-2.1 5.7zM339.47 393.37q-2.62 0-4.06-1.48-1.43-1.51-1.43-4.42V374.8h-3.16v-1.73h3.16v-5.9h2.13v5.9h5.08v1.73h-5.08v12.75q0 2.17.94 3.15.94.95 3.16.95 1.02 0 2.13-.41v1.8q-1.1.33-2.87.33zM346.95 362.46h2.14v13.9q1.55-2.1 3.64-3 2.14-.9 4.51-.9 3.86 0 5.74 2 1.9 2.02 1.9 5.38v12.91h-2.18V380q0-2.78-1.36-4.26-1.35-1.52-4.38-1.52-4.92 0-7.87 4.47v14.06h-2.14zM381.15 393.37q-5.29 0-8.24-2.7-2.91-2.75-2.91-7.71 0-4.84 2.62-7.67 2.67-2.83 7.54-2.83 3.28 0 5.58 1.27 2.3 1.27 3.44 3.53 1.2 2.25 1.2 5.12v1.35h-18.42q.09 3.9 2.59 5.9 2.5 2.02 6.76 2.02 1.93 0 3.77-.33 1.85-.33 3.28-.94v1.84q-1.18.5-3.28.82-2.05.33-3.93.33zm7.26-11.23q-.05-3.65-2.1-5.79-2.05-2.13-6.15-2.13-4.01 0-6.1 2.22-2.05 2.21-2.1 5.7zM395.72 373.07h2.1v4.19q2.45-4.19 9.18-4.19v1.77q-7.26 0-9.15 5.25v12.66h-2.13zM415.31 365.61h-4.63v-1.51h11.07v1.51h-4.64v10.62h-1.8zm7.38-1.51h1.72l4.88 9.47 4.84-9.47h1.76v12.13h-1.76v-8.9l-4.43 8.9h-.78l-4.5-8.9v8.9h-1.73z"/>
  </g>
  <g transform="matrix(2.5 0 0 2.5 -382.79 -1643.14)" fill="none" stroke-width="8">
    <circle cx="237.69" cy="711.26" r="14" stroke="#f90"/>
    <circle cx="237.69" cy="711.26" r="32" stroke="#060"/>
    <circle cx="237.69" cy="711.26" r="50" stroke="#069"/>
  </g>
</svg>
