<svg xmlns="http://www.w3.org/2000/svg" width="110" height="20">
  <metadata/>
  <path fill="none" stroke="#c0c" stroke-width="10.37" stroke-linejoin="round" d="M6.18 5.18h98.63v10.13H6.18z"/>
  <path fill="#eb99eb" stroke="#eb99eb" stroke-width="8.7" stroke-linejoin="round" d="M4.44 4.35h20.13v11.88H4.44z"/>
  <path d="M15.14 17.08q-1.42-2.57-5.73-5.17Q7.4 10.71 7.4 8.8q0-.8.28-1.55.29-.74.86-1.32.54-.56 1.26-.88.67-.3 1.47-.3.8 0 1.47.3.7.31 1.26.88.55.56.84 1.3.3.73.3 1.57 0-.84.3-1.57.3-.74.84-1.3.56-.57 1.27-.88.67-.3 1.47-.3.8 0 1.47.3.71.32 1.26.88.57.58.85 1.32.29.74.29 1.55 0 1.93-2.01 3.12-4.32 2.6-5.74 5.17z" font-weight="400" font-size="26" font-family="sans-serif" letter-spacing="0" word-spacing="0" fill="#c0c"/>
  <path fill="#eb99eb" d="M23.75 0H30v20.5h-6.25z"/>
  <g style="line-height:125%;-inkscape-font-specification:'Liberation Sans Narrow, Bold Condensed';text-align:start" font-weight="700" font-stretch="condensed" font-size="14.73" font-family="Liberation Sans Narrow" letter-spacing="0" word-spacing="0">
    <path d="M35.2 9.66q.33-.91.83-1.32.5-.41 1.2-.41.56 0 .94.23.4.24.65.65.24.4.35.96.11.56.11 1.2V16h-1.62v-4.44q0-.46-.06-.84-.05-.39-.19-.66-.13-.28-.35-.43-.21-.16-.52-.16-.3 0-.53.17-.24.16-.42.47-.17.3-.27.73-.1.41-.1.92V16H33.6V5.13h1.63V8.57l-.02.45-.02.37-.01.27h.02zM42.4 8.08v4.44q0 .46.06.85.05.38.19.66.13.27.34.42.21.16.52.16.3 0 .53-.16.24-.17.41-.47.18-.3.27-.73.1-.42.1-.93V8.08h1.63v6.67l.02.52.01.44q0 .2.02.29h-1.56l-.02-.28-.02-.43-.01-.47-.01-.4h-.03q-.33.9-.83 1.32-.5.4-1.2.4-.56 0-.95-.23-.39-.23-.64-.64-.24-.4-.36-.96-.1-.56-.1-1.2V8.08h1.63zM51.82 16v-4.45q0-.46-.05-.84-.05-.39-.17-.66-.11-.28-.3-.43-.18-.15-.44-.15-.25 0-.45.17-.2.16-.35.46-.15.3-.23.73-.08.42-.08.92V16h-1.63V9.85v-.53l-.01-.51-.02-.44-.01-.3h1.55l.02.3.02.42.03.46v.4h.02q.3-.9.75-1.32.45-.4 1.08-.4.72 0 1.16.44.43.44.58 1.28h.04q.17-.5.36-.82.2-.33.43-.53.23-.2.5-.3.28-.08.6-.08.52 0 .88.24.36.23.58.64.22.41.32.97.1.55.1 1.2V16H55.5v-4.45q0-.46-.05-.84-.05-.39-.16-.66-.12-.28-.3-.43-.18-.15-.44-.15-.24 0-.44.16-.2.15-.35.44-.15.29-.23.7-.08.4-.1.89V16h-1.6zM60.1 16.15q-.44 0-.8-.16-.36-.16-.6-.46-.25-.3-.39-.75-.13-.45-.13-1.02 0-.7.2-1.18.19-.48.52-.78.34-.3.8-.43.44-.14.95-.15L62 11.2v-.4q0-.44-.06-.73t-.18-.47q-.11-.18-.28-.26-.17-.08-.39-.08-.2 0-.37.05-.15.05-.27.19-.12.12-.19.34-.07.21-.1.54l-1.7-.1q.07-.52.26-.95.19-.43.51-.74.33-.32.8-.49.49-.17 1.13-.17.59 0 1.04.18.46.18.78.55.31.36.48.89.17.52.17 1.22v2.89q0 .27.02.5.03.21.08.37.05.14.15.22.1.08.27.08.18 0 .36-.05v1.12l-.26.08-.24.06-.24.03q-.13.02-.3.02-.62 0-.92-.38-.29-.38-.34-1.12h-.04q-.32.74-.83 1.15-.51.4-1.23.4zm1.9-3.82l-.83.02q-.26.01-.5.05-.23.04-.4.17-.18.13-.29.37-.1.24-.1.66 0 .56.2.84.21.27.55.27.31 0 .57-.17.26-.17.43-.44.18-.28.27-.63.1-.36.1-.74v-.4zM69.33 16v-4.45q0-.46-.05-.84-.06-.39-.2-.66-.13-.28-.35-.43-.2-.15-.51-.15-.3 0-.54.17-.24.16-.42.46-.17.3-.26.73-.1.42-.1.92V16h-1.63V9.85v-.53l-.01-.51q0-.25-.02-.44l-.01-.3h1.55l.03.3.02.42.02.46v.4h.03q.33-.9.82-1.32.5-.4 1.2-.4.56 0 .95.23.4.23.64.64.25.41.36.97.1.55.1 1.2V16h-1.62zM75.1 16.15q-.67 0-1.22-.25-.54-.26-.92-.77-.38-.52-.59-1.3-.2-.78-.2-1.83 0-1.13.24-1.91t.65-1.25q.4-.49.94-.7.53-.21 1.13-.21.74 0 1.26.33.52.32.86.9.33.6.49 1.41.16.82.16 1.8v.06h-4.02q0 .5.07.93.07.43.22.74.16.31.4.5.26.17.61.17.43 0 .7-.23.28-.23.4-.72l1.52.17q-.1.34-.3.72-.18.38-.49.7-.3.32-.77.53-.47.2-1.13.2zm0-6.92q-.24 0-.46.1-.22.1-.38.34-.16.23-.26.6-.1.36-.11.87h2.44q-.05-.96-.37-1.43-.32-.48-.85-.48zM84.06 16.13q-.72 0-1.11-.49-.38-.5-.38-1.5V9.47h-.8v-1.4h.87l.51-1.86h1.03v1.87h1.18v1.39h-1.18v4.11q0 .58.17.86.17.27.53.27.15 0 .27-.03l.28-.07v1.27q-.3.13-.64.19-.33.06-.73.06zM88.98 16.15q-.68 0-1.22-.25-.55-.26-.93-.77-.38-.52-.58-1.3-.2-.78-.2-1.83 0-1.13.24-1.91t.64-1.25q.41-.49.94-.7.54-.21 1.13-.21.74 0 1.26.33.53.32.86.9.34.6.5 1.41.16.82.16 1.8v.06h-4.02q0 .5.06.93.07.43.23.74.15.31.4.5.25.17.6.17.44 0 .7-.23.28-.23.4-.72l1.53.17q-.1.34-.3.72-.18.38-.5.7-.3.32-.77.53-.47.2-1.13.2zm0-6.92q-.25 0-.47.1-.22.1-.38.34-.15.23-.25.6-.1.36-.12.87h2.44q-.05-.96-.37-1.43-.31-.48-.85-.48zM95.63 16.15q-.75 0-1.3-.3-.56-.29-.94-.82-.36-.54-.55-1.29-.18-.75-.18-1.66 0-.99.2-1.76t.58-1.3q.39-.53.94-.81.57-.28 1.27-.28.61 0 1.09.2.47.2.8.57.35.35.57.83.2.49.29 1.04l-1.64.1q-.07-.6-.35-.96-.27-.37-.79-.37-.66 0-.95.68-.3.68-.3 1.98 0 2.74 1.28 2.74.46 0 .77-.37.32-.37.4-1.1l1.63.1q-.06.54-.27 1.05-.2.5-.56.88-.35.39-.85.62-.5.23-1.14.23zM101.24 9.66q.33-.91.82-1.32.5-.41 1.2-.41.56 0 .95.23.4.24.64.65.25.4.36.96.1.56.1 1.2V16h-1.62v-4.44q0-.46-.05-.84-.06-.39-.2-.66-.13-.28-.35-.43-.2-.16-.51-.16-.3 0-.54.17-.24.16-.42.47-.17.3-.26.73-.1.41-.1.92V16h-1.63V5.13h1.63V8.57l-.02.45-.01.37q0 .17-.02.27h.03z" style="line-height:125%;-inkscape-font-specification:'Liberation Sans Narrow, Bold Condensed';text-align:start"/>
  </g>
  <g style="line-height:125%;-inkscape-font-specification:'Liberation Sans Narrow, Bold Condensed';text-align:start" font-weight="700" font-stretch="condensed" font-size="14.73" font-family="Liberation Sans Narrow" letter-spacing="0" word-spacing="0" fill="#fff" fill-opacity=".94">
    <path d="M34.92 9.02q.33-.91.83-1.32.5-.41 1.2-.41.56 0 .95.23.4.24.64.65.25.4.35.97.12.55.12 1.2v5.02h-1.63v-4.44q0-.46-.06-.84-.05-.39-.19-.66-.13-.28-.35-.43-.21-.15-.52-.15-.3 0-.53.16-.24.17-.42.47-.17.3-.27.73-.09.42-.09.92v4.24h-1.63V4.5h1.63V7.93l-.02.45-.01.37-.02.27h.02zM42.12 7.44v4.44q0 .46.06.85.05.38.19.66.13.27.34.43.22.15.52.15.3 0 .54-.16.24-.17.4-.47.18-.3.27-.73.1-.42.1-.93V7.44h1.64V14.64l.02.44.02.28h-1.56l-.02-.28-.02-.43-.01-.47-.01-.4h-.03q-.32.9-.82 1.32-.5.4-1.2.4-.56 0-.96-.23-.39-.23-.64-.63-.24-.41-.36-.97-.1-.56-.1-1.2V7.44h1.63zM51.54 15.36v-4.44q0-.47-.05-.85t-.16-.66q-.12-.27-.3-.43-.19-.15-.45-.15-.24 0-.45.17-.2.16-.35.47-.14.3-.23.72-.08.42-.08.92v4.25h-1.63V9.21v-.53l-.01-.51q0-.25-.02-.44l-.01-.3h1.55l.02.3.03.42.02.47v.4h.03q.3-.92.74-1.33.46-.4 1.09-.4.72 0 1.15.44.43.44.58 1.28h.04q.17-.49.36-.82.2-.33.43-.53.23-.2.5-.29.28-.09.6-.09.52 0 .88.24.36.23.58.64.22.41.32.97t.1 1.2v5.03h-1.61v-4.44q0-.47-.05-.85T55 9.41q-.11-.27-.3-.43-.17-.15-.44-.15-.24 0-.44.16-.2.15-.35.45-.15.28-.23.68-.08.4-.1.9v4.34h-1.6zM59.83 15.5q-.45 0-.81-.15-.36-.16-.6-.46-.25-.3-.38-.75-.14-.45-.14-1.02 0-.7.2-1.18.19-.48.52-.78.34-.3.8-.43.45-.14.95-.14l1.35-.03v-.4q0-.44-.06-.72-.06-.3-.18-.48-.11-.18-.28-.26-.17-.08-.39-.08-.2 0-.37.05-.15.06-.27.19-.11.12-.18.34-.08.21-.1.54l-1.7-.1q.06-.52.25-.94.19-.44.51-.75.33-.32.81-.48.48-.18 1.12-.18.59 0 1.04.18.46.19.78.55.32.36.49.89.17.53.17 1.22v2.89q0 .28.02.5.02.22.07.37t.15.23q.1.07.27.07.18 0 .36-.04v1.1l-.26.09-.23.06-.25.03q-.13.02-.3.02-.62 0-.92-.38-.29-.38-.34-1.12h-.04q-.32.74-.83 1.15-.5.4-1.23.4zm1.9-3.8h-.84q-.26.02-.5.07-.23.03-.4.16-.18.13-.29.37-.1.24-.1.66 0 .56.2.84.21.27.55.27.31 0 .57-.17.26-.16.44-.44.17-.27.26-.63.1-.36.1-.74v-.4zM69.06 15.36v-4.44q0-.47-.06-.85t-.2-.66q-.13-.27-.34-.43-.22-.15-.52-.15-.3 0-.54.17-.24.16-.41.47-.17.3-.27.72t-.1.92v4.25H65V9.21v-.53l-.01-.51-.01-.44-.02-.3h1.56l.02.3.02.42.02.47v.4h.03q.33-.92.82-1.33.5-.4 1.2-.4.56 0 .95.23.4.23.64.64.25.41.36.97.11.56.11 1.2v5.03h-1.62zM74.83 15.5q-.68 0-1.22-.24-.55-.26-.93-.77-.38-.52-.59-1.3-.2-.78-.2-1.83 0-1.13.25-1.9.24-.79.64-1.26.4-.49.94-.7.54-.21 1.13-.21.74 0 1.26.33.53.32.86.9.34.6.5 1.41.15.82.15 1.8v.06h-4.01q0 .5.06.93.07.43.22.74.16.31.4.5.26.17.62.17.43 0 .7-.23.27-.23.38-.71l1.54.16q-.11.34-.3.72-.18.38-.5.7-.3.32-.77.53-.47.2-1.13.2zm0-6.91q-.25 0-.47.1-.22.1-.38.34-.16.23-.25.6-.1.36-.12.88h2.44q-.05-.96-.37-1.44t-.85-.48zM83.78 15.5q-.72 0-1.11-.5-.38-.5-.38-1.5V8.83h-.8v-1.4h.87l.51-1.85h1.03v1.86h1.18v1.39H83.9v4.11q0 .58.17.86.17.27.53.27.15 0 .27-.03l.29-.07v1.27q-.3.13-.65.19-.33.06-.73.06zM88.7 15.5q-.68 0-1.22-.24-.54-.26-.93-.77-.38-.52-.58-1.3-.2-.78-.2-1.83 0-1.13.24-1.9.24-.79.64-1.26.41-.49.94-.7.54-.21 1.13-.21.74 0 1.27.33.52.32.85.9.34.6.5 1.41.16.82.16 1.8v.06h-4.02q0 .5.06.93.07.43.23.74.15.31.4.5.26.17.6.17.44 0 .7-.23.28-.23.4-.71l1.53.16q-.1.34-.3.72-.18.38-.5.7-.3.32-.77.53-.46.2-1.13.2zm0-6.91q-.25 0-.47.1-.21.1-.38.34-.15.23-.25.6-.1.36-.11.88h2.43q-.05-.96-.36-1.44-.32-.48-.86-.48zM95.36 15.5q-.75 0-1.31-.29t-.93-.82q-.37-.54-.55-1.28-.19-.76-.19-1.67 0-.99.2-1.75.2-.78.59-1.3.38-.54.94-.82.56-.28 1.27-.28.6 0 1.08.2.47.21.81.57.35.35.56.83.21.49.29 1.04l-1.64.1q-.07-.6-.35-.96-.27-.37-.79-.37-.66 0-.95.68-.3.69-.3 1.98 0 2.74 1.28 2.74.47 0 .78-.36.3-.38.39-1.11l1.63.1q-.06.54-.27 1.05-.2.5-.56.89-.35.38-.85.61-.5.23-1.13.23zM100.96 9.02q.33-.91.82-1.32.5-.41 1.2-.41.56 0 .95.23.4.24.64.65.25.4.36.97.11.55.11 1.2v5.02h-1.62v-4.44q0-.46-.06-.84-.06-.39-.2-.66-.13-.28-.34-.43-.22-.15-.52-.15-.3 0-.54.16-.24.17-.41.47-.17.3-.27.73-.1.42-.1.92v4.24h-1.63V4.5H101v2.97l-.01.47q0 .24-.02.45l-.01.37-.01.27h.02z" style="line-height:125%;-inkscape-font-specification:'Liberation Sans Narrow, Bold Condensed';text-align:start"/>
  </g>
</svg>
